Version 4
SHEET 1 1032 680
WIRE 816 80 816 32
WIRE 256 144 256 96
WIRE 480 144 480 96
WIRE 208 160 112 160
WIRE 432 160 288 160
WIRE 592 160 512 160
WIRE 768 160 672 160
WIRE 816 288 816 176
WIRE 256 352 256 320
WIRE 480 352 480 304
WIRE 208 368 112 368
WIRE 432 368 288 368
WIRE 592 368 512 368
WIRE 768 368 672 368
FLAG 112 368 V_n
IOPIN 112 368 In
FLAG 112 160 V_p
IOPIN 112 160 In
FLAG 256 176 0
FLAG 480 176 0
FLAG 256 384 0
FLAG 480 384 0
FLAG -64 592 0
FLAG 16 592 V_in
IOPIN 16 592 Out
FLAG 256 320 V_in
IOPIN 256 320 In
FLAG 256 96 V_in
IOPIN 256 96 In
FLAG 480 96 V_in
IOPIN 480 96 In
FLAG 480 304 V_in
IOPIN 480 304 In
FLAG 816 384 0
FLAG 816 32 V_cc
IOPIN 816 32 In
SYMBOL AutoGenerated/CD4049UB 240 176 R0
SYMATTR InstName U1
SYMBOL AutoGenerated/CD4049UB 464 176 R0
SYMATTR InstName U2
SYMBOL AutoGenerated/CD4049UB 240 384 R0
SYMATTR InstName U3
SYMBOL AutoGenerated/CD4049UB 464 384 R0
SYMATTR InstName U4
SYMBOL voltage 32 592 R90
WINDOW 0 -32 56 VBottom 2
WINDOW 3 32 56 VTop 2
SYMATTR InstName V1
SYMATTR Value 5V
SYMBOL res 688 352 R90
WINDOW 0 0 56 VBottom 2
WINDOW 3 32 56 VTop 2
SYMATTR InstName R1
SYMATTR Value 1k
SYMBOL res 688 144 R90
WINDOW 0 0 56 VBottom 2
WINDOW 3 32 56 VTop 2
SYMATTR InstName R2
SYMATTR Value 1k
SYMBOL pmos 768 80 R0
WINDOW 0 59 31 Left 2
SYMATTR InstName M1
SYMBOL nmos 768 288 R0
SYMATTR InstName M2
