Version 4
SHEET 1 1152 916
WIRE 992 576 992 496
WIRE 352 608 352 560
WIRE 576 608 576 560
WIRE 304 624 208 624
WIRE 528 624 384 624
WIRE 688 624 608 624
WIRE 928 624 768 624
WIRE 1024 672 992 672
WIRE 1024 720 1024 672
WIRE 1072 720 1024 720
WIRE 1024 784 1024 720
WIRE 1024 784 928 784
WIRE 352 816 352 784
WIRE 576 816 576 768
WIRE 304 832 208 832
WIRE 528 832 384 832
WIRE 688 832 608 832
WIRE 864 832 768 832
FLAG -64 592 0
FLAG 16 592 V_in
IOPIN 16 592 Out
FLAG 208 832 V_n
IOPIN 208 832 In
FLAG 208 624 V_p
IOPIN 208 624 In
FLAG 352 640 0
FLAG 576 640 0
FLAG 352 848 0
FLAG 576 848 0
FLAG 352 784 V_in
IOPIN 352 784 In
FLAG 352 560 V_in
IOPIN 352 560 In
FLAG 576 560 V_in
IOPIN 576 560 In
FLAG 576 768 V_in
IOPIN 576 768 In
FLAG 1072 720 V_out
FLAG 928 880 0
FLAG 992 496 V_cc
IOPIN 992 496 In
SYMBOL voltage 32 592 R90
WINDOW 0 -32 56 VBottom 2
WINDOW 3 32 56 VTop 2
SYMATTR InstName V1
SYMATTR Value 5V
SYMBOL AutoGenerated/CD4049UB 336 640 R0
SYMATTR InstName U1
SYMBOL AutoGenerated/CD4049UB 560 640 R0
SYMATTR InstName U2
SYMBOL AutoGenerated/CD4049UB 336 848 R0
SYMATTR InstName U3
SYMBOL AutoGenerated/CD4049UB 560 848 R0
SYMATTR InstName U4
SYMBOL res 784 816 R90
WINDOW 0 0 56 VBottom 2
WINDOW 3 32 56 VTop 2
SYMATTR InstName R1
SYMATTR Value 1k
SYMBOL res 784 608 R90
WINDOW 0 0 56 VBottom 2
WINDOW 3 32 56 VTop 2
SYMATTR InstName R2
SYMATTR Value 1k
SYMBOL pnp 928 672 M180
SYMATTR InstName Q1
SYMBOL npn 864 784 R0
SYMATTR InstName Q2
