Version 4
SHEET 1 1136 680
WIRE 0 192 0 80
WIRE 288 192 0 192
WIRE 608 208 352 208
WIRE 288 224 272 224
WIRE 608 224 608 208
WIRE 688 224 608 224
WIRE 0 240 0 192
WIRE 432 336 432 320
WIRE 272 352 272 224
WIRE 272 352 256 352
WIRE 400 352 272 352
WIRE 496 352 480 352
WIRE 768 400 720 400
WIRE 432 432 432 416
WIRE 272 448 256 448
WIRE 400 448 272 448
WIRE 496 448 480 448
WIRE 592 448 576 448
WIRE 576 528 400 528
WIRE 720 528 720 400
WIRE 720 528 656 528
WIRE 272 544 272 448
WIRE 288 544 272 544
WIRE 400 560 400 528
WIRE 400 560 352 560
WIRE 0 576 0 320
WIRE 288 576 0 576
FLAG 496 352 V_n
IOPIN 496 352 In
FLAG 592 448 V_p
IOPIN 592 448 In
FLAG 192 448 0
FLAG 192 352 0
FLAG 0 80 V_pwm
IOPIN 0 80 In
FLAG 688 224 V_p
IOPIN 688 224 Out
FLAG 768 400 V_n
IOPIN 768 400 Out
FLAG 432 464 0
FLAG 528 464 0
FLAG 624 544 0
FLAG 432 368 0
FLAG 432 320 V_in
IOPIN 432 320 In
FLAG 432 416 V_in
IOPIN 432 416 In
FLAG 528 384 0
FLAG 528 432 V_in
IOPIN 528 432 In
FLAG 624 512 V_in
IOPIN 624 512 In
FLAG -16 288 0
FLAG 16 288 V_in
IOPIN 16 288 In
FLAG 960 336 0
FLAG 1040 336 V_in
IOPIN 1040 336 Out
SYMBOL cap 256 336 R90
WINDOW 0 0 32 VBottom 2
WINDOW 3 32 32 VTop 2
SYMATTR InstName C1
SYMATTR Value 2000pF
SYMBOL cap 256 432 R90
WINDOW 0 0 32 VBottom 2
WINDOW 3 32 32 VTop 2
SYMATTR InstName C2
SYMATTR Value 2000pF
SYMBOL Digital/and 320 640 M180
WINDOW 3 16 2 Left 2
SYMATTR Value Vhigh=5 Vlow=0
SYMATTR InstName A1
SYMBOL Digital/and 320 288 M180
WINDOW 3 16 2 Left 2
SYMATTR Value Vhigh=5 Vlow=0
SYMATTR InstName A2
SYMBOL AutoGenerated/CD4049UB 448 432 R180
SYMATTR InstName U1
SYMBOL AutoGenerated/CD4049UB 448 336 R180
SYMATTR InstName U2
SYMBOL AutoGenerated/CD4049UB 544 432 R180
SYMATTR InstName U3
SYMBOL AutoGenerated/CD4049UB 608 544 R0
SYMATTR InstName U4
SYMBOL AutoGenerated/CD4049UB -16 272 R90
SYMATTR InstName U5
SYMBOL voltage 1056 336 R90
WINDOW 0 -32 56 VBottom 2
WINDOW 3 32 56 VTop 2
SYMATTR InstName V2
SYMATTR Value 5V
